@startuml

title __SMART_SEARCH_ALGORITHMS_PROJECT's Class Diagram__\n

  namespace sample {

    class sample.MainApp {
    }

 namespace view {
       class sample.view.StyleConstants {
           {static} + squaresIcons : HashMap<SquaresEnum, String>
           {static} - GLASS_ICON : String
           {static} - HEAD_ICON : String
           {static} - SNAKE_DOWN : String
           {static} - SNAKE_DU : String
           {static} - SNAKE_LD : String
           {static} - SNAKE_LEFT : String
           {static} - SNAKE_LU : String
           {static} - SNAKE_RD : String
           {static} - SNAKE_RIGHT : String
           {static} - SNAKE_RL : String
           {static} - SNAKE_RU : String
           {static} - SNAKE_UP : String
           {static} - STONE_ICON : String
           {static} - VOID_ICON : String
           {static} - snakeSquares : HashMap<String, SquaresEnum>
           {static} + getSnakeSquareType()
           {static} + getSquareIcon()
           {static} + initialize()
       }

   class sample.view.ViewFactory {
           {static} + defaultFactory : ViewFactory
           {static} - MAIN_SCREEN_FXML : String
           {static} - mainViewInitialized : boolean
           + getMainScene()
           - initializeScene()
       }
     }

    namespace controller {
       abstract class sample.controller.AbstractController {
           + AbstractController()
           + getModelAccess()
       }

     class sample.controller.ConfirmBox {
           {static} ~ Answer : boolean
           {static} + display()
       }

      class sample.controller.MainController {
           ~ availableShapes : ArrayList<Shape>
           ~ grid : GridPane
           - btnFlip : Button
           - btnRotate : Button
           - sideBar : VBox
           + MainController()
           + initMainGrid()
           + initShapesGrid()
           + initialize()
           + updateSidebar()
           ~ actionHandler()
           - flipSelectedShape()
           - initSideBar()
           - rotateSelectedShape()
       }

   class sample.controller.ModelAccess {
           {static} - mainController : MainController
           - selectedShapeGrid : GridPane
           - shapeGrids : ArrayList<GridPane>
           {static} - squaresPerShape : HashMap<ShapesEnum, Integer>
           + addShape()
           {static} + getMainController()
           + getSelectedShape()
           + getSelectedShapeGrid()
           {static} + getSquaresCount()
           {static} + initialize()
           {static} + setMainController()
           + setSelectedShape()
           + setSelectedShapeGrid()
       }

    class sample.controller.ShapeFactory {
           {static} + buildConnections()
           {static} + buildFrame()
           {static} - hasDown()
           {static} - hasLeft()
           {static} - hasRight()
           {static} - hasUp()
       }

     class sample.controller.SquareFactory {
           {static} + buildSquare()
       }
     }

     namespace model {
       class sample.model.GlassSquare {
           + GlassSquare()
           + getStringType()
       }
      class sample.model.Puzzle {
           ~ m : int
           ~ n : int
           ~ shapes : Shape[]
           ~ squares : Square[][]
           + Puzzle()
           + canFit()
           + getShape()
           + getShapeTypes()
           + getShapesCount()
           + getSquareType()
           + getSquaresTypes()
           + getTypes()
           + initShapes()
           + initSquares()
           + toString()
           - checkConnections()
       }

    class sample.model.Shape {
           ~ flipped : boolean
           ~ glass : boolean
           ~ squares : Square[]
           - squaresFrame : Square[][]
           + Shape()
           + flipShape()
           + getHead()
           + getSquaresFrame()
           + removeSelection()
           + resetVisitedSquares()
           + rotateShape()
           + showHead()
           + toString()
           - flipFrame()
           - initSquares()
           - rotateLeft()
       }

      enum ShapesEnum {
         I
         L
         sI
         sL
         z
       }
      class sample.model.SnakeSquare {
           ~ sDown : boolean
           ~ sLeft : boolean
           ~ sRight : boolean
           ~ sUp : boolean
           + SnakeSquare()
           + getStringType()
           + hasSnakeDown()
           + hasSnakeLeft()
           + hasSnakeRight()
           + hasSnakeUp()
           + rotateSnakeConnections()
           - getConnectionString()
           - makeConnections()
           - updateType()
       }
        abstract class sample.model.Square {
           ~ flipped : boolean
           - selected : boolean
           - visited : boolean
           + cancelSelection()
           + flipSquare()
           {abstract} + getStringType()
           + getType()
           + hasDown()
           + hasLeft()
           + hasRight()
           + hasSnakeDown()
           + hasSnakeLeft()
           + hasSnakeRight()
           + hasSnakeUp()
           + hasUp()
           + isSnakeSquare()
           + isVisited()
           + rotateLeft()
           + select()
           + setDown()
           + setLeft()
           + setRight()
           + setUp()
           + setVisited()
           + useBackFace()
           + useFrontFace()
       }
       enum SquaresEnum {
         Glass
         Head
         SnakeDU
         SnakeDown
         SnakeLD
         SnakeLU
         SnakeLeft
         SnakeRD
         SnakeRL
         SnakeRU
         SnakeRight
         SnakeUp
         Stone
         Void
       }
      class sample.model.StoneSquare {
           + StoneSquare()
           + getStringType()
       }


   }

  

  sample.MainApp -up-|> javafx.application.Application
  sample.controller.AbstractController o-- sample.controller.ModelAccess : modelAccess
  sample.controller.MainController .up.|> javafx.fxml.Initializable
  sample.controller.MainController -up-|> sample.controller.AbstractController
  sample.controller.MainController o-- sample.model.Puzzle : puzzle
  sample.controller.ModelAccess o-- sample.model.Shape : selectedShape
  sample.model.GlassSquare -up-|> sample.model.Square
  sample.model.Shape o-- sample.model.Square : head
  sample.model.Shape o-- sample.model.ShapesEnum : type
  sample.model.SnakeSquare -up-|> sample.model.Square
  sample.model.Square o-- sample.model.SquaresEnum : backType
  sample.model.Square o-- sample.model.Square : down
  sample.model.Square o-- sample.model.SquaresEnum : frontType
  sample.model.Square o-- sample.model.Square : left
  sample.model.Square o-- sample.model.Square : right
  sample.model.Square o-- sample.model.SquaresEnum : type
  sample.model.Square o-- sample.model.Square : up
  sample.model.StoneSquare -up-|> sample.model.Square
  sample.view.ViewFactory o-- sample.controller.ModelAccess : modelAccess


right footer


PlantUML diagram generated by SketchIt! (https://bitbucket.org/pmesmeur/sketch.it)
For more information about this tool, please contact philippe.mesmeur@gmail.com
endfooter

@enduml
