@startuml

title __MYPACKAGE's Class Diagram__\n

  namespace mypackage {
    class mypackage.Algorithem {
        ~ Map : Vector<Vector<Integer>>
        ~ visited : boolean[]
        + Algorithem()
        + BFS()
        + DFS()
    }
  }
  

  namespace mypackage {
    class mypackage.Game {
        - Outshapes : Shape[]
        + Game()
        + Set_Outshape()
        + createGame()
        + get_Outshape()
        + get_Puzzel()
        + set_Puzzel()
        - createShapes()
    }
  }
  

  namespace mypackage {
    class mypackage.Glass_Part {
    }
  }
  

  namespace mypackage {
    class mypackage.Glass_Shape {
        + Glass_Shape()
        + createShape()
    }
  }
  

  namespace mypackage {
    class mypackage.Human {
    }
  }
  

  namespace mypackage {
    class mypackage.Main {
        {static} + main()
    }
  }
  

  namespace mypackage {
    class mypackage.Player {
    }
  }
  

  namespace mypackage {
    class mypackage.Puzzel {
        - available : boolean[][]
        - map : Square[][]
        + Puzzel()
        + Set_Map()
        + createPuzzel()
        + get_Available()
        + get_Map()
        + set_Available()
    }
  }
  

  namespace mypackage {
    abstract class mypackage.Shape {
        ~ squares : Square[][]
        + Shape()
        + correctionAfterRotat()
        {abstract} + createShape()
        + invert()
        + rotate()
    }
  }
  

  namespace mypackage {
    enum KindsOfShape {
      a
      b
      c
      d
      e
    }
  }
  

  namespace mypackage {
    class mypackage.Snack_Part {
        ~ down : boolean
        ~ left : boolean
        ~ right : boolean
        ~ up : boolean
        + Snack_Part()
    }
  }
  

  namespace mypackage {
    enum SnackPartsName {
      body
      head
      openSide
      tail
    }
  }
  

  namespace mypackage {
    class mypackage.Snack_Shape {
        + Snack_Shape()
        + createShape()
    }
  }
  

  namespace mypackage {
    abstract class mypackage.Square {
    }
  }
  

  namespace mypackage {
    class mypackage.Stone {
        + Stone()
    }
  }
  

  mypackage.Algorithem -up-|> mypackage.Player
  mypackage.Game o-- mypackage.Player : player
  mypackage.Game o-- mypackage.Puzzel : puzzel
  mypackage.Glass_Part -up-|> mypackage.Square
  mypackage.Glass_Shape -up-|> mypackage.Shape
  mypackage.Human -up-|> mypackage.Player
  mypackage.Shape +-down- mypackage.Shape.KindsOfShape
  mypackage.Snack_Part -up-|> mypackage.Square
  mypackage.Snack_Part +-down- mypackage.Snack_Part.SnackPartsName
  mypackage.Snack_Shape -up-|> mypackage.Shape
  mypackage.Stone -up-|> mypackage.Square


right footer


PlantUML diagram generated by SketchIt! (https://bitbucket.org/pmesmeur/sketch.it)
For more information about this tool, please contact philippe.mesmeur@gmail.com
endfooter

@enduml
