@startuml

title __SAMPLE's Class Diagram__\n

  namespace sample {
    class sample.Controller {
    }
  }
  

  namespace sample {
    class sample.MainApp {
        {static} ~ MainStage : Stage
        {static} ~ reader : BufferedReader
        {static} - readerCounter : int
        {static} + loadLevel()
        {static} + main()
        {static} + readInputLine()
        {static} + setScene()
        + start()
        {static} + startMainView()
        {static} - closeWindow()
    }
  }
  

  namespace sample {
    class sample.Test {
        {static} + puzzle : Puzzle
        {static} + main()
    }
  }
  

  sample.MainApp -up-|> javafx.application.Application


right footer


PlantUML diagram generated by SketchIt! (https://bitbucket.org/pmesmeur/sketch.it)
For more information about this tool, please contact philippe.mesmeur@gmail.com
endfooter

@enduml
